…
```r
#clean the data in a basic way

#issue 1: some cities have different capitalizations. Use stringr's to_title()
rats_nyc <- rats_nyc %>%  
  drop_na() %>%
  mutate(
      city = str_to_title(city)
  )

rats_nyc
```

```
## # A tibble: 36,849 × 3
##    created_date        closed_date            city         
##    <dttm>              <chr>                  <chr>        
##  1 2015-09-04 00:00:00 09/18/2015 12:00:00 AM New York     
##  2 2015-09-04 00:00:00 10/28/2015 12:00:00 AM Staten Island
##  3 2015-09-04 00:00:00 09/14/2015 12:00:00 AM Brooklyn     
##  4 2015-09-04 00:00:00 09/22/2015 12:00:00 AM Bronx        
##  5 2015-09-04 00:00:00 09/22/2015 12:00:00 AM Brooklyn     
##  6 2015-09-04 00:00:00 09/22/2015 04:26:36 PM Flushing     
##  7 2015-09-04 00:00:00 08/19/2015 12:00:00 AM New York     
##  8 2015-09-04 00:00:00 09/25/2015 12:00:00 AM Staten Island
##  9 2015-09-04 00:00:00 07/30/2015 12:00:00 AM Brooklyn     
## 10 2015-09-04 00:00:00 09/15/2015 04:03:54 PM Brooklyn     
## # … with 36,839 more rows
```
…
city_names <- (rats_season %>%
  group_by(city) %>%
  summarize(city_count=n()) %>%
  filter(city_count >= 150))$city 

rats_seasons_cities <- rats_season %>%
  filter(city %in% city_names)  %>% #doesn't make too much of a dent in our total number of rows, which makes sense
  mutate(
    time_to_complete = as.numeric(closed_date - created_date)
  )
rats_seasons_cities
```

```
## # A tibble: 34,761 × 6
##    created_date closed_date city          created_month season time_to_complete
##    <date>       <date>      <chr>         <ord>         <fct>             <dbl>
##  1 2015-09-04   2015-09-18  New York      Sep           Summer               14
##  2 2015-09-04   2015-10-28  Staten Island Sep           Summer               54
##  3 2015-09-04   2015-09-14  Brooklyn      Sep           Summer               10
##  4 2015-09-04   2015-09-22  Bronx         Sep           Summer               18
##  5 2015-09-04   2015-09-22  Brooklyn      Sep           Summer               18
##  6 2015-09-04   2015-09-22  Flushing      Sep           Summer               18
##  7 2015-09-04   2015-08-19  New York      Sep           Summer              -16
##  8 2015-09-04   2015-09-25  Staten Island Sep           Summer               21
##  9 2015-09-04   2015-07-30  Brooklyn      Sep           Summer              -36
## 10 2015-09-04   2015-09-15  Brooklyn      Sep           Summer               11
## # … with 34,751 more rows
```

```r
#some of the times to complete are negative? Some closed dates happen before the created dates. I may be misunderstanding the columns. 

#In my understanding, a case is created, and then closed when the case is done. 

#I'll just remove the rows with negative completion times.

rats_seasons_cities <- rats_seasons_cities %>%
  filter(time_to_complete > 0)
rats_seasons_cities #that's a lot of rows gone... 
```

```
## # A tibble: 25,576 × 6
##    created_date closed_date city          created_month season time_to_complete
##    <date>       <date>      <chr>         <ord>         <fct>             <dbl>
##  1 2015-09-04   2015-09-18  New York      Sep           Summer               14
##  2 2015-09-04   2015-10-28  Staten Island Sep           Summer               54
##  3 2015-09-04   2015-09-14  Brooklyn      Sep           Summer               10
##  4 2015-09-04   2015-09-22  Bronx         Sep           Summer               18
##  5 2015-09-04   2015-09-22  Brooklyn      Sep           Summer               18
##  6 2015-09-04   2015-09-22  Flushing      Sep           Summer               18
##  7 2015-09-04   2015-09-25  Staten Island Sep           Summer               21
##  8 2015-09-04   2015-09-15  Brooklyn      Sep           Summer               11
##  9 2015-09-05   2015-10-08  Brooklyn      Sep           Summer               33
## 10 2015-09-04   2015-09-10  New York      Sep           Summer                6
## # … with 25,566 more rows
```
…
## How do the different months compare in terms of time to complete? Are there any patterns that appear throughout they different months of all years?

```r
#issue 1: there are a few cases with pretty bad outliers past around 110 days. Filter them.
rats_seasons_cities_days <- rats_seasons_cities %>%
  filter(time_to_complete <= 60) %>%
  mutate(
    created_day = mday(created_date) #day in the month
  )
rats_seasons_cities_days
```

```
## # A tibble: 25,365 × 7
##    created_date closed_date city          created_month season time_to…¹ creat…²
##    <date>       <date>      <chr>         <ord>         <fct>      <dbl>   <int>
##  1 2015-09-04   2015-09-18  New York      Sep           Summer        14       4
##  2 2015-09-04   2015-10-28  Staten Island Sep           Summer        54       4
##  3 2015-09-04   2015-09-14  Brooklyn      Sep           Summer        10       4
##  4 2015-09-04   2015-09-22  Bronx         Sep           Summer        18       4
##  5 2015-09-04   2015-09-22  Brooklyn      Sep           Summer        18       4
##  6 2015-09-04   2015-09-22  Flushing      Sep           Summer        18       4
##  7 2015-09-04   2015-09-25  Staten Island Sep           Summer        21       4
##  8 2015-09-04   2015-09-15  Brooklyn      Sep           Summer        11       4
##  9 2015-09-05   2015-10-08  Brooklyn      Sep           Summer        33       5
## 10 2015-09-04   2015-09-10  New York      Sep           Summer         6       4
## # … with 25,355 more rows, and abbreviated variable names ¹​time_to_complete,
## #   ²​created_day
```
…
