…
```r
#we don't need our analysis to be very granular, so the 'bing' lexicon of either positive or negative will work for us. 
bingLexicon <- get_sentiments("bing")
```


```r
bingLexicon
```

```
## # A tibble: 6,786 × 2
##    word        sentiment
##    <chr>       <chr>    
##  1 2-faces     negative 
##  2 abnormal    negative 
##  3 abolish     negative 
##  4 abominable  negative 
##  5 abominably  negative 
##  6 abominate   negative 
##  7 abomination negative 
##  8 abort       negative 
##  9 aborted     negative 
## 10 aborts      negative 
## # … with 6,776 more rows
```
…
```
## `summarise()` has grouped output by 'word'. You can override using the
## `.groups` argument.
```

```r
bing_hits
```

```
## # A tibble: 50 × 3
## # Groups:   word [50]
##    word       sentiment     n
##    <chr>      <chr>     <int>
##  1 great      positive     18
##  2 easy       positive      6
##  3 good       positive      6
##  4 helpful    positive      5
##  5 clear      positive      4
##  6 difficult  negative     -4
##  7 well       positive      4
##  8 hard       negative     -3
##  9 responsive positive      3
## 10 awesome    positive      2
## # … with 40 more rows
```
…
